<?xml version="1.0" encoding="UTF-8"?>
<svg xmlns:cc="http://creativecommons.org/ns#" xmlns:dc="http://purl.org/dc/elements/1.1/"
     xmlns:rdf="http://www.w3.org/1999/02/22-rdf-syntax-ns#" width="232px" height="68px" version="1.1"
     viewBox="0 0 232 68" xmlns="http://www.w3.org/2000/svg">
    <metadata>
        <rdf:RDF>
            <cc:Work rdf:about="">
                <dc:format>image/svg+xml</dc:format>
                <dc:type rdf:resource="http://purl.org/dc/dcmitype/StillImage"/>
                <dc:title>Server Monitoring App</dc:title>
            </cc:Work>
        </rdf:RDF>
    </metadata>
    <!-- Generator: Sketch 48.2 (47327) - http://www.bohemiancoding.com/sketch -->
    <title>Server Monitoring App</title>
    <desc>Created with Me.</desc>
    <g id="Group" transform="translate(2,2)" fill-rule="evenodd">
        <path id="Shape"
              d="m62.611 14.202c-1.5746-6.3102-6.5017-11.237-12.812-12.812-11.793-1.8543-23.803-1.8543-35.596 0-6.3103 1.5745-11.237 6.5015-12.812 12.812-1.8543 11.793-1.8543 23.803 0 35.595 1.5746 6.3102 6.5017 11.237 12.812 12.812 11.793 1.8543 23.803 1.8543 35.596 0 6.3103-1.5745 11.237-6.5015 12.812-12.812 1.8522-11.793 1.8522-23.802 0-35.595z"
              fill="#2d89ef" fill-rule="nonzero"/>
        <path id="Path"
              d="m31.327 34.329c-2.8267 4.4161-6.6137 8.1633-11.089 10.973-1.454 0.88482-3.2809 0.93179-4.7801 0.12288-1.4992-0.8089-2.4382-2.3482-2.4569-4.0276-0.01875-1.6795 0.88563-3.2386 2.3664-4.0796 2.3195-1.4317 4.3776-3.2359 6.0882-5.3371-1.7546-2.0478-3.8059-3.8316-6.0882-5.2944-2.2576-1.3205-2.9975-4.1879-1.6525-6.4045s4.2655-2.943 6.5231-1.6225c4.4667 2.7847 8.2531 6.5022 11.089 10.888 0.89789 1.4721 0.89789 3.3099 0 4.782z"
              fill="#fff"/>
        <path d="m47.2 44h-11.4c-2.1111 0-3.8-1.02-3.8-3s1.71-3 3.8-3h11.4c2.1111 0 3.8 1.02 3.8 3s-1.71 3-3.8 3z"
              fill="#fff"/>
    </g>
    <text transform="scale(.86475 1.1564)" x="79.39286" y="43.504639" fill="#333333" fill-rule="evenodd" font-family="Dyuthi" font-size="40.906px" letter-spacing="0px" stroke-width="1.4887" word-spacing="0px" style="font-feature-settings:normal;font-variant-caps:normal;font-variant-ligatures:normal;font-variant-numeric:normal;line-height:1.25" xml:space="preserve"><tspan x="79.39286" y="43.504639" font-family="Dyuthi" font-size="40.906px" stroke-width="1.4887" style="font-feature-settings:normal;font-variant-caps:normal;font-variant-ligatures:normal;font-variant-numeric:normal">Monitoring App</tspan></text>
</svg>
